<svg width="20" height="21" viewBox="0 0 20 21" fill="none" xmlns="http://www.w3.org/2000/svg">
<path fill-rule="evenodd" clip-rule="evenodd" d="M0.238281 0.753906L1.60329 10.3089L2.37504 10.5019L1.60329 10.6948L0.238281 20.2498L19.7342 10.5019L0.238281 0.753906ZM3.393 8.69481L2.758 4.24984L15.2621 10.5019L2.758 16.7539L3.393 12.3089L10.6212 10.5019L3.393 8.69481Z" fill="white"/>
</svg>
