<svg width="24" height="16" viewBox="0 0 24 16" fill="none" xmlns="http://www.w3.org/2000/svg">
<path d="M7.31711 8.20664L10.7637 15.3996H4.58228L0.835938 7.98186L7.54189 0.601562H13.9856L7.31711 8.20664ZM16.4956 8.20664L19.9423 15.3996H13.7608L10.0145 7.98186L16.7204 0.601562H23.1641L16.4956 8.20664Z" fill="black"/>
</svg>
