<?xml version="1.0" standalone="no"?>
<!DOCTYPE svg PUBLIC "-//W3C//DTD SVG 1.1//EN" "http://www.w3.org/Graphics/SVG/1.1/DTD/svg11.dtd" >
<svg xmlns="http://www.w3.org/2000/svg">
<metadata>Generated by IcoMoon</metadata>
<defs>
<font id="icomoon" horiz-adv-x="1024">
<font-face units-per-em="1024" ascent="960" descent="-64" />
<missing-glyph horiz-adv-x="1024" />
<glyph unicode="&#x20;" horiz-adv-x="512" d="" />
<glyph unicode="&#xe900;" glyph-name="angle-down" d="M899.11 728l103.43-103.428-490.52-490.52-490.52 490.52 103.428 103.428 387.092-387.093 387.090 387.093z" />
<glyph unicode="&#xe901;" glyph-name="angle-left" d="M389.412 448l424.985-424.986-82.412-82.417-507.398 507.402 507.398 507.399 82.412-82.412-424.985-424.987z" />
<glyph unicode="&#xe902;" glyph-name="angle-right" d="M634.587 448.001l-424.987 424.987 82.412 82.412 507.399-507.399-507.399-507.398-82.412 82.412 424.987 424.986z" />
<glyph unicode="&#xe903;" glyph-name="arrow" d="M36 923.238l66.56-465.92 37.632-9.411-37.632-9.406-66.56-465.92 950.658 475.326-950.658 475.331zM189.83 536.025l-30.964 216.745 609.724-304.862-609.724-304.859 30.964 216.747 352.461 88.113-352.461 88.117z" />
<glyph unicode="&#xe904;" glyph-name="brackets-left" d="M312.197 439.183l147.055-306.9h-263.741l-159.844 316.49 286.121 314.893h274.932l-284.522-324.483zM703.812 439.183l147.059-306.9h-263.744l-159.842 316.49 286.118 314.893h274.931l-284.523-324.483z" />
<glyph unicode="&#xe905;" glyph-name="brackets-right" d="M711.804 456.817l-147.055 306.9h263.74l159.846-316.491-286.123-314.891h-274.931l284.523 324.482zM320.186 456.817l-147.056 306.9h263.743l159.842-316.491-286.12-314.891h-274.931l284.522 324.482z" />
<glyph unicode="&#xe906;" glyph-name="check" d="M976.648 695.146l-114.327 114.328-500.839-500.838-231.364 231.364-114.328-114.328 345.692-345.692 615.166 615.166z" />
<glyph unicode="&#xe907;" glyph-name="cross" d="M240.417 659.167l60.34 60.34 482.718-482.718-60.34-60.34-482.718 482.718zM300.75 176.499l-60.34 60.34 482.718 482.718 60.34-60.34-482.718-482.718z" />
<glyph unicode="&#xe908;" glyph-name="refresh" d="M512.32 960c141.446 0 269.299-57.214 361.824-149.76l149.856 149.76v-448h-448.28l206.207 206.080c-69.101 69.702-163.784 113.847-269.983 113.92-166.981-0.161-308.975-106.992-361.449-256h-1.132c-7.297-20.588-12.885-41.978-16.593-64h-128.821c31.407 252.647 246.363 448 507.732 448h0.64zM0 384v-448l149.853 149.76c92.525-92.544 220.38-149.76 361.827-149.76h0.64c261.37 0 476.326 195.354 507.731 448h-128.819c-3.706-22.022-9.299-43.412-16.595-64h-1.133c-52.467-149.005-194.458-255.834-361.428-256-106.207 0.070-200.894 44.211-270.004 113.92l206.209 206.080h-448.28z" />
<glyph unicode="&#xe909;" glyph-name="search" d="M414.476 155.429c90.147 0 173.154 30.579 239.206 81.925l262.695-262.69 68.959 68.959-262.69 262.695c51.346 66.053 81.925 149.060 81.925 239.206 0 215.444-174.651 390.095-390.095 390.095s-390.095-174.651-390.095-390.095c0-215.445 174.651-390.095 390.095-390.095zM707.048 545.524c0-161.582-130.989-292.571-292.571-292.571s-292.571 130.989-292.571 292.571c0 161.583 130.989 292.571 292.571 292.571s292.571-130.989 292.571-292.571z" />
</font></defs></svg>